^C:\USERS\AVILL\DOCUMENTS\VISUAL STUDIO 2012\PROJECTS\WPOSAPI\PCLTESTAPP\STDAFX.CPP
/c /ZI /nologo /W3 /WX- /sdl /Od /Oy- /D WIN32 /D _WINDOWS /D _DEBUG /D _UNICODE /D UNICODE /D _AFXDLL /Gm /EHsc /RTC1 /MDd /GS /fp:precise /Zc:wchar_t /Zc:forScope /Yc"stdafx.h" /Fp"WIN32\DEBUG\PCLTESTAPP.PCH" /Fo"WIN32\DEBUG\\" /Fd"WIN32\DEBUG\VC110.PDB" /Gd /TP /analyze- C:\USERS\AVILL\DOCUMENTS\VISUAL STUDIO 2012\PROJECTS\WPOSAPI\PCLTESTAPP\STDAFX.CPP
^C:\USERS\AVILL\DOCUMENTS\VISUAL STUDIO 2012\PROJECTS\WPOSAPI\PCLTESTAPP\BACKLIGHTDIALOG.CPP
/c /ZI /nologo /W3 /WX- /sdl /Od /Oy- /D WIN32 /D _WINDOWS /D _DEBUG /D _UNICODE /D UNICODE /D _AFXDLL /Gm /EHsc /RTC1 /MDd /GS /fp:precise /Zc:wchar_t /Zc:forScope /Yu"stdafx.h" /Fp"WIN32\DEBUG\PCLTESTAPP.PCH" /Fo"WIN32\DEBUG\\" /Fd"WIN32\DEBUG\VC110.PDB" /Gd /TP /analyze- C:\USERS\AVILL\DOCUMENTS\VISUAL STUDIO 2012\PROJECTS\WPOSAPI\PCLTESTAPP\BACKLIGHTDIALOG.CPP
^C:\USERS\AVILL\DOCUMENTS\VISUAL STUDIO 2012\PROJECTS\WPOSAPI\PCLTESTAPP\BARCODE_DIALOG.CPP
/c /ZI /nologo /W3 /WX- /sdl /Od /Oy- /D WIN32 /D _WINDOWS /D _DEBUG /D _UNICODE /D UNICODE /D _AFXDLL /Gm /EHsc /RTC1 /MDd /GS /fp:precise /Zc:wchar_t /Zc:forScope /Yu"stdafx.h" /Fp"WIN32\DEBUG\PCLTESTAPP.PCH" /Fo"WIN32\DEBUG\\" /Fd"WIN32\DEBUG\VC110.PDB" /Gd /TP /analyze- C:\USERS\AVILL\DOCUMENTS\VISUAL STUDIO 2012\PROJECTS\WPOSAPI\PCLTESTAPP\BARCODE_DIALOG.CPP
^C:\USERS\AVILL\DOCUMENTS\VISUAL STUDIO 2012\PROJECTS\WPOSAPI\PCLTESTAPP\INPUTMESSAGE.CPP
/c /ZI /nologo /W3 /WX- /sdl /Od /Oy- /D WIN32 /D _WINDOWS /D _DEBUG /D _UNICODE /D UNICODE /D _AFXDLL /Gm /EHsc /RTC1 /MDd /GS /fp:precise /Zc:wchar_t /Zc:forScope /Yu"stdafx.h" /Fp"WIN32\DEBUG\PCLTESTAPP.PCH" /Fo"WIN32\DEBUG\\" /Fd"WIN32\DEBUG\VC110.PDB" /Gd /TP /analyze- C:\USERS\AVILL\DOCUMENTS\VISUAL STUDIO 2012\PROJECTS\WPOSAPI\PCLTESTAPP\INPUTMESSAGE.CPP
^C:\USERS\AVILL\DOCUMENTS\VISUAL STUDIO 2012\PROJECTS\WPOSAPI\PCLTESTAPP\INPUT_SIMUL.CPP
/c /ZI /nologo /W3 /WX- /sdl /Od /Oy- /D WIN32 /D _WINDOWS /D _DEBUG /D _UNICODE /D UNICODE /D _AFXDLL /Gm /EHsc /RTC1 /MDd /GS /fp:precise /Zc:wchar_t /Zc:forScope /Yu"stdafx.h" /Fp"WIN32\DEBUG\PCLTESTAPP.PCH" /Fo"WIN32\DEBUG\\" /Fd"WIN32\DEBUG\VC110.PDB" /Gd /TP /analyze- C:\USERS\AVILL\DOCUMENTS\VISUAL STUDIO 2012\PROJECTS\WPOSAPI\PCLTESTAPP\INPUT_SIMUL.CPP
^C:\USERS\AVILL\DOCUMENTS\VISUAL STUDIO 2012\PROJECTS\WPOSAPI\PCLTESTAPP\LOGONAME.CPP
/c /ZI /nologo /W3 /WX- /sdl /Od /Oy- /D WIN32 /D _WINDOWS /D _DEBUG /D _UNICODE /D UNICODE /D _AFXDLL /Gm /EHsc /RTC1 /MDd /GS /fp:precise /Zc:wchar_t /Zc:forScope /Yu"stdafx.h" /Fp"WIN32\DEBUG\PCLTESTAPP.PCH" /Fo"WIN32\DEBUG\\" /Fd"WIN32\DEBUG\VC110.PDB" /Gd /TP /analyze- C:\USERS\AVILL\DOCUMENTS\VISUAL STUDIO 2012\PROJECTS\WPOSAPI\PCLTESTAPP\LOGONAME.CPP
^C:\USERS\AVILL\DOCUMENTS\VISUAL STUDIO 2012\PROJECTS\WPOSAPI\PCLTESTAPP\NETWORK.CPP
/c /ZI /nologo /W3 /WX- /sdl /Od /Oy- /D WIN32 /D _WINDOWS /D _DEBUG /D _UNICODE /D UNICODE /D _AFXDLL /Gm /EHsc /RTC1 /MDd /GS /fp:precise /Zc:wchar_t /Zc:forScope /Yu"stdafx.h" /Fp"WIN32\DEBUG\PCLTESTAPP.PCH" /Fo"WIN32\DEBUG\\" /Fd"WIN32\DEBUG\VC110.PDB" /Gd /TP /analyze- C:\USERS\AVILL\DOCUMENTS\VISUAL STUDIO 2012\PROJECTS\WPOSAPI\PCLTESTAPP\NETWORK.CPP
^C:\USERS\AVILL\DOCUMENTS\VISUAL STUDIO 2012\PROJECTS\WPOSAPI\PCLTESTAPP\OPENBCRDIALOG.CPP
/c /ZI /nologo /W3 /WX- /sdl /Od /Oy- /D WIN32 /D _WINDOWS /D _DEBUG /D _UNICODE /D UNICODE /D _AFXDLL /Gm /EHsc /RTC1 /MDd /GS /fp:precise /Zc:wchar_t /Zc:forScope /Yu"stdafx.h" /Fp"WIN32\DEBUG\PCLTESTAPP.PCH" /Fo"WIN32\DEBUG\\" /Fd"WIN32\DEBUG\VC110.PDB" /Gd /TP /analyze- C:\USERS\AVILL\DOCUMENTS\VISUAL STUDIO 2012\PROJECTS\WPOSAPI\PCLTESTAPP\OPENBCRDIALOG.CPP
^C:\USERS\AVILL\DOCUMENTS\VISUAL STUDIO 2012\PROJECTS\WPOSAPI\PCLTESTAPP\PCLTESTAPP.CPP
/c /ZI /nologo /W3 /WX- /sdl /Od /Oy- /D WIN32 /D _WINDOWS /D _DEBUG /D _UNICODE /D UNICODE /D _AFXDLL /Gm /EHsc /RTC1 /MDd /GS /fp:precise /Zc:wchar_t /Zc:forScope /Yu"stdafx.h" /Fp"WIN32\DEBUG\PCLTESTAPP.PCH" /Fo"WIN32\DEBUG\\" /Fd"WIN32\DEBUG\VC110.PDB" /Gd /TP /analyze- C:\USERS\AVILL\DOCUMENTS\VISUAL STUDIO 2012\PROJECTS\WPOSAPI\PCLTESTAPP\PCLTESTAPP.CPP
^C:\USERS\AVILL\DOCUMENTS\VISUAL STUDIO 2012\PROJECTS\WPOSAPI\PCLTESTAPP\PCLTESTDLG.CPP
/c /ZI /nologo /W3 /WX- /sdl /Od /Oy- /D WIN32 /D _WINDOWS /D _DEBUG /D _UNICODE /D UNICODE /D _AFXDLL /Gm /EHsc /RTC1 /MDd /GS /fp:precise /Zc:wchar_t /Zc:forScope /Yu"stdafx.h" /Fp"WIN32\DEBUG\PCLTESTAPP.PCH" /Fo"WIN32\DEBUG\\" /Fd"WIN32\DEBUG\VC110.PDB" /Gd /TP /analyze- C:\USERS\AVILL\DOCUMENTS\VISUAL STUDIO 2012\PROJECTS\WPOSAPI\PCLTESTAPP\PCLTESTDLG.CPP
^C:\USERS\AVILL\DOCUMENTS\VISUAL STUDIO 2012\PROJECTS\WPOSAPI\PCLTESTAPP\PRINTERFONTDIALOG.CPP
/c /ZI /nologo /W3 /WX- /sdl /Od /Oy- /D WIN32 /D _WINDOWS /D _DEBUG /D _UNICODE /D UNICODE /D _AFXDLL /Gm /EHsc /RTC1 /MDd /GS /fp:precise /Zc:wchar_t /Zc:forScope /Yu"stdafx.h" /Fp"WIN32\DEBUG\PCLTESTAPP.PCH" /Fo"WIN32\DEBUG\\" /Fd"WIN32\DEBUG\VC110.PDB" /Gd /TP /analyze- C:\USERS\AVILL\DOCUMENTS\VISUAL STUDIO 2012\PROJECTS\WPOSAPI\PCLTESTAPP\PRINTERFONTDIALOG.CPP
^C:\USERS\AVILL\DOCUMENTS\VISUAL STUDIO 2012\PROJECTS\WPOSAPI\PCLTESTAPP\SHORTCUT.CPP
/c /ZI /nologo /W3 /WX- /sdl /Od /Oy- /D WIN32 /D _WINDOWS /D _DEBUG /D _UNICODE /D UNICODE /D _AFXDLL /Gm /EHsc /RTC1 /MDd /GS /fp:precise /Zc:wchar_t /Zc:forScope /Yu"stdafx.h" /Fp"WIN32\DEBUG\PCLTESTAPP.PCH" /Fo"WIN32\DEBUG\\" /Fd"WIN32\DEBUG\VC110.PDB" /Gd /TP /analyze- C:\USERS\AVILL\DOCUMENTS\VISUAL STUDIO 2012\PROJECTS\WPOSAPI\PCLTESTAPP\SHORTCUT.CPP
^C:\USERS\AVILL\DOCUMENTS\VISUAL STUDIO 2012\PROJECTS\WPOSAPI\PCLTESTAPP\TMS_DIALOG.CPP
/c /ZI /nologo /W3 /WX- /sdl /Od /Oy- /D WIN32 /D _WINDOWS /D _DEBUG /D _UNICODE /D UNICODE /D _AFXDLL /Gm /EHsc /RTC1 /MDd /GS /fp:precise /Zc:wchar_t /Zc:forScope /Yu"stdafx.h" /Fp"WIN32\DEBUG\PCLTESTAPP.PCH" /Fo"WIN32\DEBUG\\" /Fd"WIN32\DEBUG\VC110.PDB" /Gd /TP /analyze- C:\USERS\AVILL\DOCUMENTS\VISUAL STUDIO 2012\PROJECTS\WPOSAPI\PCLTESTAPP\TMS_DIALOG.CPP
^C:\USERS\AVILL\DOCUMENTS\VISUAL STUDIO 2012\PROJECTS\WPOSAPI\PCLTESTAPP\TRANSACTION.CPP
/c /ZI /nologo /W3 /WX- /sdl /Od /Oy- /D WIN32 /D _WINDOWS /D _DEBUG /D _UNICODE /D UNICODE /D _AFXDLL /Gm /EHsc /RTC1 /MDd /GS /fp:precise /Zc:wchar_t /Zc:forScope /Yu"stdafx.h" /Fp"WIN32\DEBUG\PCLTESTAPP.PCH" /Fo"WIN32\DEBUG\\" /Fd"WIN32\DEBUG\VC110.PDB" /Gd /TP /analyze- C:\USERS\AVILL\DOCUMENTS\VISUAL STUDIO 2012\PROJECTS\WPOSAPI\PCLTESTAPP\TRANSACTION.CPP
^C:\USERS\AVILL\DOCUMENTS\VISUAL STUDIO 2012\PROJECTS\WPOSAPI\PCLTESTAPP\UNIT_TEST.CPP
/c /ZI /nologo /W3 /WX- /sdl /Od /Oy- /D WIN32 /D _WINDOWS /D _DEBUG /D _UNICODE /D UNICODE /D _AFXDLL /Gm /EHsc /RTC1 /MDd /GS /fp:precise /Zc:wchar_t /Zc:forScope /Yu"stdafx.h" /Fp"WIN32\DEBUG\PCLTESTAPP.PCH" /Fo"WIN32\DEBUG\\" /Fd"WIN32\DEBUG\VC110.PDB" /Gd /TP /analyze- C:\USERS\AVILL\DOCUMENTS\VISUAL STUDIO 2012\PROJECTS\WPOSAPI\PCLTESTAPP\UNIT_TEST.CPP
