^C:\USERS\AVILL\DOCUMENTS\VISUAL STUDIO 2012\PROJECTS\WPOSAPI\PCLTESTAPP\PCLTESTAPP.RC
C:\USERS\AVILL\DOCUMENTS\VISUAL STUDIO 2012\PROJECTS\WPOSAPI\PCLTESTAPP\RESOURCE.H
C:\USERS\AVILL\DOCUMENTS\VISUAL STUDIO 2012\PROJECTS\WPOSAPI\PCLTESTAPP\TARGETVER.H
C:\PROGRAM FILES (X86)\WINDOWS KITS\8.0\INCLUDE\UM\WINSDKVER.H
C:\PROGRAM FILES (X86)\WINDOWS KITS\8.0\INCLUDE\SHARED\WINAPIFAMILY.H
C:\PROGRAM FILES (X86)\WINDOWS KITS\8.0\INCLUDE\SHARED\SDKDDKVER.H
C:\PROGRAM FILES (X86)\MICROSOFT VISUAL STUDIO 11.0\VC\ATLMFC\INCLUDE\AFXRES.H
C:\PROGRAM FILES (X86)\WINDOWS KITS\8.0\INCLUDE\UM\WINRES.H
C:\PROGRAM FILES (X86)\WINDOWS KITS\8.0\INCLUDE\UM\WINRESRC.H
C:\PROGRAM FILES (X86)\WINDOWS KITS\8.0\INCLUDE\UM\WINUSER.RH
C:\PROGRAM FILES (X86)\WINDOWS KITS\8.0\INCLUDE\UM\COMMCTRL.RH
C:\PROGRAM FILES (X86)\WINDOWS KITS\8.0\INCLUDE\UM\DDE.RH
C:\PROGRAM FILES (X86)\WINDOWS KITS\8.0\INCLUDE\UM\WINNT.RH
C:\PROGRAM FILES (X86)\WINDOWS KITS\8.0\INCLUDE\UM\DLGS.H
C:\PROGRAM FILES (X86)\WINDOWS KITS\8.0\INCLUDE\UM\WINVER.H
C:\PROGRAM FILES (X86)\WINDOWS KITS\8.0\INCLUDE\SHARED\SPECSTRINGS.H
C:\PROGRAM FILES (X86)\MICROSOFT VISUAL STUDIO 11.0\VC\INCLUDE\SAL.H
C:\PROGRAM FILES (X86)\MICROSOFT VISUAL STUDIO 11.0\VC\INCLUDE\CONCURRENCYSAL.H
C:\PROGRAM FILES (X86)\WINDOWS KITS\8.0\INCLUDE\SHARED\DRIVERSPECS.H
C:\PROGRAM FILES (X86)\WINDOWS KITS\8.0\INCLUDE\SHARED\SDV_DRIVERSPECS.H
C:\PROGRAM FILES (X86)\WINDOWS KITS\8.0\INCLUDE\UM\VERRSRC.H
C:\USERS\AVILL\DOCUMENTS\VISUAL STUDIO 2012\PROJECTS\WPOSAPI\PCLTESTAPP\RES\PCLTESTAPP.RC2
C:\PROGRAM FILES (X86)\MICROSOFT VISUAL STUDIO 11.0\VC\ATLMFC\INCLUDE\L.FRA\AFXRES.RC
C:\USERS\AVILL\DOCUMENTS\VISUAL STUDIO 2012\PROJECTS\WPOSAPI\PCLTESTAPP\RES\PCLTESTAPP.ICO
C:\USERS\AVILL\DOCUMENTS\VISUAL STUDIO 2012\PROJECTS\WPOSAPI\PCLTESTAPP\RES\INGENICO.BMP
